{"$type":"Normal","regular":[1,2,10,28,43],"star":[3,5]}
{"$type":"System","regular":[1,2,13,25,30,38,39,47,50],"star":[1,3,5]}
{"$type":"System","regular":[1,2,9,18,30,35,40,50],"star":[1,2,4,5]}
{"$type":"System","regular":[1,4,19,22,23,37,42,44,50],"star":[1,2,5]}
{"$type":"Normal","regular":[4,9,23,26,35],"star":[4,5]}
{"$type":"Normal","regular":[2,6,34,42,50],"star":[1,5]}
{"$type":"System","regular":[1,5,6,14,29,37,39,50],"star":[1,2,3,4]}
{"$type":"Normal","regular":[1,5,10,43,50],"star":[1,4]}
{"$type":"System","regular":[1,2,4,7,10,18,35,39,45,50],"star":[1,2,3,5]}
{"$type":"Normal","regular":[1,8,45,46,50],"star":[1,5]}
{"$type":"System","regular":[1,24,30,31,35,39,48,50],"star":[1,4,5]}
{"$type":"Normal","regular":[1,13,21,43,50],"star":[3,4]}
{"$type":"Normal","regular":[1,23,36,37,50],"star":[1,5]}
{"$type":"System","regular":[3,7,16,19,29,31,37,43],"star":[1,2,4,5]}
{"$type":"Normal","regular":[1,21,27,29,45],"star":[3,5]}
{"$type":"System","regular":[1,6,15,22,34,35,42,46,50],"star":[1,3,5]}
{"$type":"Normal","regular":[1,13,26,39,50],"star":[3,5]}
{"$type":"System","regular":[1,6,9,13,19,24,36,39,41,43],"star":[1,3,5]}
{"$type":"System","regular":[1,7,24,25,32,41,42,46,50],"star":[1,2,4,5]}
{"$type":"System","regular":[1,24,28,34,35,36,37,38,50],"star":[1,3,4,5]}
{"$type":"Normal","regular":[1,3,10,25,50],"star":[2,5]}
{"$type":"System","regular":[1,10,17,20,25,30,32,34,50],"star":[1,2,4,5]}
{"$type":"Normal","regular":[1,8,18,43,50],"star":[1,3]}
{"$type":"System","regular":[1,12,18,19,26,33,36,41,50],"star":[1,3,5]}
{"$type":"Normal","regular":[3,7,18,33,50],"star":[1,4]}
{"$type":"Normal","regular":[1,16,18,47,50],"star":[1,5]}
{"$type":"System","regular":[1,5,6,9,24,25,29,32,40,43],"star":[1,2,3,5]}
{"$type":"Normal","regular":[1,9,18,45,50],"star":[1,3]}
{"$type":"System","regular":[1,10,15,20,21,29,44,50],"star":[1,3,4,5]}
{"$type":"System","regular":[1,2,5,7,9,17,27,35,45,50],"star":[1,2,3,4,5]}
{"$type":"Normal","regular":[1,8,12,35,50],"star":[1,4]}
{"$type":"Normal","regular":[11,20,32,43,50],"star":[1,3]}
{"$type":"Normal","regular":[1,4,5,38,50],"star":[1,5]}
{"$type":"System","regular":[1,6,7,9,19,36,37,41,50],"star":[1,2,3,5]}
{"$type":"System","regular":[1,6,9,17,18,21,24,31,49,50],"star":[1,2,3,4,5]}
{"$type":"Normal","regular":[4,6,32,43,50],"star":[1,2]}
{"$type":"System","regular":[1,2,15,30,31,36,39,46,50],"star":[1,2,3,5]}
{"$type":"System","regular":[1,4,16,28,31,32,46,47,50],"star":[1,3,4,5]}
{"$type":"Normal","regular":[1,10,43,49,50],"star":[4,5]}
{"$type":"Normal","regular":[1,3,37,42,50],"star":[4,5]}
{"$type":"Normal","regular":[1,11,14,18,27],"star":[4,5]}
{"$type":"Normal","regular":[1,7,21,43,50],"star":[1,4]}
{"$type":"System","regular":[1,5,8,10,12,21,28,36,40,50],"star":[1,4,5]}
{"$type":"Normal","regular":[1,10,39,47,50],"star":[1,2]}
{"$type":"System","regular":[1,3,11,15,23,36,50],"star":[1,3,5]}
{"$type":"System","regular":[1,5,7,8,10,24,35,36,50],"star":[1,3,4,5]}
{"$type":"Normal","regular":[1,14,21,34,50],"star":[1,5]}
{"$type":"Normal","regular":[1,20,40,46,48],"star":[1,2]}
{"$type":"System","regular":[1,7,10,13,23,37,38,47,50],"star":[1,2,3,4,5]}
{"$type":"System","regular":[1,2,7,8,11,19,26,28,43],"star":[2,3,4,5]}
{"$type":"Normal","regular":[3,5,37,38,50],"star":[1,4]}
{"$type":"System","regular":[1,6,18,21,25,32,46,50],"star":[1,2,3,5]}
{"$type":"System","regular":[1,12,16,27,35,36,37,50],"star":[1,2,3,5]}
{"$type":"Normal","regular":[4,13,29,47,50],"star":[1,4]}
{"$type":"System","regular":[1,4,7,14,16,37,45,50],"star":[3,4,5]}
{"$type":"System","regular":[1,9,14,28,30,31,44,50],"star":[1,2,3,5]}
{"$type":"Normal","regular":[1,15,43,45,50],"star":[1,3]}
{"$type":"Normal","regular":[10,25,32,42,50],"star":[2,5]}
{"$type":"Normal","regular":[1,8,9,28,50],"star":[2,5]}
{"$type":"System","regular":[1,19,28,29,30,31,38,48,49,50],"star":[1,4,5]}
{"$type":"Normal","regular":[1,3,16,40,50],"star":[3,5]}
{"$type":"System","regular":[1,12,13,20,30,38,40,47,50],"star":[1,2,4,5]}
{"$type":"System","regular":[1,3,7,19,24,30,32,47,50],"star":[1,2,3,5]}
{"$type":"System","regular":[1,6,9,10,14,24,27,32,48],"star":[1,2,5]}
{"$type":"Normal","regular":[1,2,15,16,34],"star":[3,4]}
{"$type":"Normal","regular":[1,6,21,34,50],"star":[1,5]}
{"$type":"System","regular":[1,7,16,27,28,34,43,46,50],"star":[2,3,4,5]}
{"$type":"Normal","regular":[1,12,15,36,50],"star":[1,5]}
{"$type":"Normal","regular":[1,16,21,32,50],"star":[2,5]}
{"$type":"Normal","regular":[6,17,25,39,50],"star":[2,5]}
{"$type":"Normal","regular":[1,7,20,22,37],"star":[4,5]}
{"$type":"System","regular":[1,4,6,19,24,37,38,39,41,44],"star":[1,2,3,4,5]}
{"$type":"Normal","regular":[1,24,26,31,32],"star":[1,5]}
{"$type":"System","regular":[1,6,10,14,18,20,45,50],"star":[1,3,4,5]}
{"$type":"System","regular":[1,9,12,14,19,22,32,46,48,50],"star":[2,3,4,5]}
{"$type":"System","regular":[1,2,5,11,17,40,43,46],"star":[1,2,4,5]}
{"$type":"Normal","regular":[1,14,34,39,47],"star":[1,5]}
{"$type":"System","regular":[1,9,13,17,21,22,25,33,41,46],"star":[1,3,4,5]}
{"$type":"Normal","regular":[1,13,26,33,40],"star":[1,2]}
{"$type":"System","regular":[1,5,12,33,38,45,46,50],"star":[1,3,4,5]}
{"$type":"Normal","regular":[1,16,22,37,50],"star":[2,5]}
{"$type":"System","regular":[1,8,12,20,24,31,42,50],"star":[1,3,5]}
{"$type":"System","regular":[1,3,13,14,17,33,41,50],"star":[1,3,5]}
{"$type":"System","regular":[1,11,14,22,31,41,46,50],"star":[2,3,4,5]}
{"$type":"System","regular":[1,2,4,8,16,20,39,40,43,46],"star":[1,3,4,5]}
{"$type":"System","regular":[1,6,15,20,30,36,42,44,50],"star":[1,2,4,5]}
{"$type":"Normal","regular":[1,4,8,37,48],"star":[2,3]}
{"$type":"Normal","regular":[1,15,28,31,42],"star":[1,5]}
{"$type":"Normal","regular":[1,25,38,42,47],"star":[3,5]}
{"$type":"System","regular":[1,7,11,27,31,44,49,50],"star":[1,2,4,5]}
{"$type":"System","regular":[1,2,3,14,19,37,47,50],"star":[1,3,4]}
{"$type":"System","regular":[1,2,5,9,11,13,25,48],"star":[1,2,3,5]}
{"$type":"Normal","regular":[1,10,26,27,29],"star":[4,5]}
{"$type":"System","regular":[1,7,11,24,33,34,46,48,50],"star":[1,3,5]}
{"$type":"System","regular":[1,3,9,22,26,44,49,50],"star":[1,3,4,5]}
{"$type":"Normal","regular":[1,16,36,49,50],"star":[1,5]}
{"$type":"Normal","regular":[1,6,27,31,34],"star":[3,5]}
{"$type":"System","regular":[1,19,21,24,30,31,46,48],"star":[1,2,5]}
{"$type":"Normal","regular":[1,12,32,43,44],"star":[1,5]}
{"$type":"System","regular":[1,3,4,7,18,25,26,42,49,50],"star":[1,2,3,5]}
{"$type":"Normal","regular":[1,5,24,27,50],"star":[2,3]}
{"$type":"System","regular":[1,5,26,28,33,40,48,50],"star":[1,2,3,5]}
{"$type":"Normal","regular":[2,4,13,28,50],"star":[1,3]}
{"$type":"System","regular":[1,11,28,32,40,42,50],"star":[1,2,3,5]}
{"$type":"Normal","regular":[1,11,22,26,50],"star":[1,2]}
{"$type":"Normal","regular":[21,25,29,47,50],"star":[3,5]}
{"$type":"Normal","regular":[1,2,34,43,46],"star":[4,5]}
{"$type":"System","regular":[1,12,16,20,28,30,33,41,50],"star":[1,3,4,5]}
{"$type":"Normal","regular":[1,14,22,38,47],"star":[2,4]}
{"$type":"Normal","regular":[1,6,23,45,50],"star":[1,3]}
{"$type":"System","regular":[1,3,11,13,21,24,28,33,43,44],"star":[1,2,5]}
{"$type":"System","regular":[1,4,6,15,16,21,23,42],"star":[1,4,5]}
{"$type":"Normal","regular":[1,17,35,38,50],"star":[3,5]}
{"$type":"System","regular":[4,10,13,14,22,38,39,46,48,50],"star":[1,2,3,5]}
{"$type":"Normal","regular":[1,11,43,46,50],"star":[2,5]}
{"$type":"System","regular":[1,2,6,20,26,29,31,46,50],"star":[1,2,3,5]}
{"$type":"System","regular":[1,4,16,21,23,27,30,42,43],"star":[1,4,5]}
{"$type":"System","regular":[1,3,9,10,11,15,30,42,47,50],"star":[1,4,5]}
{"$type":"System","regular":[1,9,12,18,19,24,44,47,50],"star":[1,2,3]}
{"$type":"Normal","regular":[1,3,20,28,43],"star":[1,5]}
{"$type":"Normal","regular":[13,19,32,46,49],"star":[1,2]}
{"$type":"Normal","regular":[4,9,21,43,50],"star":[2,3]}
{"$type":"System","regular":[1,4,7,10,32,35,43,45,47,49],"star":[3,4,5]}
{"$type":"Normal","regular":[5,11,32,40,43],"star":[3,5]}
{"$type":"System","regular":[1,8,19,24,28,30,38,41,49,50],"star":[1,3,5]}
{"$type":"Normal","regular":[2,18,37,39,50],"star":[1,5]}
{"$type":"Normal","regular":[1,8,29,46,50],"star":[2,5]}
{"$type":"Normal","regular":[1,5,21,24,43],"star":[1,4]}
{"$type":"Normal","regular":[1,5,28,34,41],"star":[1,5]}
{"$type":"Normal","regular":[1,30,38,46,50],"star":[1,5]}
{"$type":"System","regular":[1,14,20,33,38,40,45,46,50],"star":[1,4,5]}
{"$type":"Normal","regular":[1,39,41,46,50],"star":[1,4]}
{"$type":"Normal","regular":[1,6,8,36,50],"star":[2,4]}
{"$type":"System","regular":[1,14,15,28,32,39,43,49,50],"star":[1,2,3,4,5]}
{"$type":"Normal","regular":[1,8,11,37,44],"star":[2,5]}
{"$type":"Normal","regular":[1,7,8,18,46],"star":[1,3]}
{"$type":"System","regular":[1,5,6,17,23,27,30,44,50],"star":[1,3,4,5]}
{"$type":"Normal","regular":[3,42,43,45,50],"star":[3,4]}
{"$type":"Normal","regular":[1,11,15,42,50],"star":[1,4]}
{"$type":"System","regular":[1,7,14,21,26,34,42,50],"star":[1,2,5]}
{"$type":"Normal","regular":[15,22,24,30,50],"star":[1,5]}
{"$type":"System","regular":[1,15,34,37,38,41,42,43,44,50],"star":[1,3,4,5]}
{"$type":"System","regular":[1,5,16,21,38,40,46,50],"star":[1,3,5]}
{"$type":"System","regular":[1,3,4,8,12,21,26,39,50],"star":[1,2,3,4,5]}
{"$type":"System","regular":[1,2,3,8,11,26,31,38,48,50],"star":[1,2,3,4,5]}
{"$type":"Normal","regular":[1,29,47,49,50],"star":[2,3]}
{"$type":"Normal","regular":[1,10,11,13,46],"star":[1,5]}
{"$type":"Normal","regular":[1,16,26,38,41],"star":[1,5]}
{"$type":"System","regular":[4,6,19,29,38,41,42,47,50],"star":[1,2,4,5]}
{"$type":"System","regular":[1,7,8,9,11,35,40,44,50],"star":[1,2,3,4,5]}
{"$type":"Normal","regular":[1,10,46,49,50],"star":[1,3]}
{"$type":"System","regular":[1,6,10,25,32,42,50],"star":[1,2,3,5]}
{"$type":"System","regular":[1,7,16,21,28,35,38,44,46,50],"star":[1,2,5]}
{"$type":"System","regular":[1,5,9,10,17,28,35,37,42],"star":[1,2,4,5]}
{"$type":"System","regular":[1,18,19,24,32,38,47,50],"star":[1,2,4,5]}
{"$type":"System","regular":[1,4,9,14,15,37,38,48,50],"star":[1,2,5]}
{"$type":"Normal","regular":[1,15,17,21,50],"star":[1,4]}
{"$type":"System","regular":[1,6,13,22,25,27,31,48,50],"star":[1,2,3,5]}
{"$type":"System","regular":[1,13,19,20,29,32,43,45,50],"star":[1,3,4,5]}
{"$type":"System","regular":[1,12,20,24,30,32,43,49,50],"star":[1,4,5]}
{"$type":"System","regular":[1,6,9,12,13,21,29,34,37,50],"star":[1,3,5]}
{"$type":"System","regular":[1,7,15,19,37,38,40,47,50],"star":[1,2,3,5]}
{"$type":"Normal","regular":[1,5,31,42,50],"star":[1,5]}
{"$type":"System","regular":[1,6,20,28,32,42,43,50],"star":[1,2,3,5]}
{"$type":"Normal","regular":[1,23,36,49,50],"star":[1,2]}
{"$type":"Normal","regular":[1,4,16,25,31],"star":[2,4]}
{"$type":"System","regular":[1,21,24,28,29,31,35,40,47,50],"star":[1,3,4,5]}
{"$type":"Normal","regular":[1,7,13,24,34],"star":[1,2]}
{"$type":"Normal","regular":[1,15,29,30,41],"star":[1,2]}
{"$type":"System","regular":[1,8,15,21,25,32,35,38,42,50],"star":[1,2,3,4,5]}
{"$type":"System","regular":[1,7,12,17,18,20,23,27,34,37],"star":[1,2,3,4,5]}
{"$type":"System","regular":[1,2,10,18,22,30,31,32,37,38],"star":[3,4,5]}
{"$type":"Normal","regular":[1,12,17,29,50],"star":[1,5]}
{"$type":"Normal","regular":[1,3,14,25,50],"star":[1,2]}
{"$type":"System","regular":[1,3,5,12,20,32,36,41,50],"star":[1,2,3,4]}
{"$type":"Normal","regular":[12,18,35,47,49],"star":[1,2]}
{"$type":"System","regular":[1,3,14,19,34,36,39,40,50],"star":[1,3,5]}
{"$type":"System","regular":[1,12,21,23,28,32,33,43,46,50],"star":[1,2,4,5]}
{"$type":"System","regular":[1,7,13,31,32,36,47,50],"star":[1,4,5]}
{"$type":"System","regular":[1,4,6,7,14,20,30,40],"star":[1,4,5]}
{"$type":"System","regular":[1,14,25,27,39,41,46,50],"star":[1,2,4,5]}
{"$type":"System","regular":[1,2,6,17,21,25,27,39,50],"star":[1,3,5]}
{"$type":"Normal","regular":[1,17,36,39,43],"star":[1,4]}
{"$type":"System","regular":[1,3,8,12,19,26,28,42,50],"star":[1,2,3,4,5]}
{"$type":"System","regular":[1,8,23,26,32,33,34,37,50],"star":[1,3,4,5]}
{"$type":"System","regular":[1,11,16,24,27,29,31,44,50],"star":[1,2,4,5]}
{"$type":"Normal","regular":[1,41,45,46,49],"star":[1,5]}
{"$type":"Normal","regular":[1,10,25,45,50],"star":[1,4]}
{"$type":"System","regular":[1,4,7,27,29,35,40,49,50],"star":[1,2,4,5]}
{"$type":"Normal","regular":[1,18,33,41,44],"star":[2,3]}
{"$type":"System","regular":[1,12,18,24,31,40,49,50],"star":[1,2,3,5]}
{"$type":"System","regular":[1,10,11,17,18,24,38,44,45,50],"star":[1,2,3,4,5]}
{"$type":"System","regular":[1,6,14,16,18,22,29,49,50],"star":[1,2,3,5]}
{"$type":"System","regular":[1,4,9,11,24,36,40,50],"star":[1,2,5]}
{"$type":"System","regular":[1,7,12,13,28,37,39,42,44,50],"star":[1,4,5]}
{"$type":"System","regular":[1,4,14,15,27,43,48,50],"star":[1,2,4,5]}
{"$type":"Normal","regular":[4,28,36,38,50],"star":[1,2]}
{"$type":"System","regular":[1,15,20,22,25,44,50],"star":[1,3,4,5]}
{"$type":"System","regular":[1,4,12,21,35,40,49,50],"star":[1,3,4,5]}
{"$type":"System","regular":[1,6,8,11,18,26,43,47,50],"star":[1,2,3,4]}
{"$type":"Normal","regular":[1,31,33,38,48],"star":[4,5]}
{"$type":"Normal","regular":[15,27,28,43,50],"star":[1,5]}
{"$type":"System","regular":[1,3,19,24,37,38,40,49,50],"star":[1,3,5]}
{"$type":"Normal","regular":[1,3,5,16,50],"star":[1,5]}
{"$type":"System","regular":[1,16,23,33,38,42,45,50],"star":[1,2,3,4,5]}
{"$type":"Normal","regular":[1,28,38,40,46],"star":[3,4]}
{"$type":"System","regular":[1,9,16,19,30,35,45,50],"star":[1,3,5]}
{"$type":"Normal","regular":[1,21,26,47,50],"star":[4,5]}
{"$type":"System","regular":[1,3,9,20,22,39,46,50],"star":[1,3,4,5]}
{"$type":"Normal","regular":[15,35,36,37,41],"star":[2,5]}
{"$type":"Normal","regular":[4,9,16,26,50],"star":[1,5]}
{"$type":"Normal","regular":[1,6,12,14,50],"star":[1,2]}
{"$type":"System","regular":[1,3,7,12,14,18,49,50],"star":[1,2,5]}
{"$type":"System","regular":[1,8,9,11,14,24,28,30,34,50],"star":[1,2,3,5]}
{"$type":"System","regular":[1,3,12,19,24,32,37,38,50],"star":[1,3,4,5]}
{"$type":"Normal","regular":[1,14,30,41,50],"star":[1,5]}
{"$type":"System","regular":[1,6,13,20,31,34,37,43,50],"star":[1,2,3,5]}
{"$type":"Normal","regular":[1,21,29,35,50],"star":[1,5]}
{"$type":"Normal","regular":[9,10,28,37,50],"star":[1,5]}
{"$type":"Normal","regular":[1,8,27,47,50],"star":[1,4]}
{"$type":"Normal","regular":[1,18,44,48,50],"star":[1,4]}
{"$type":"Normal","regular":[1,17,21,24,49],"star":[1,4]}
{"$type":"Normal","regular":[1,20,24,32,50],"star":[1,3]}
{"$type":"Normal","regular":[1,2,12,33,50],"star":[2,3]}
{"$type":"System","regular":[9,10,18,19,21,25,34,48,50],"star":[1,4,5]}
{"$type":"System","regular":[1,3,30,31,38,41,50],"star":[1,2,3,4]}
{"$type":"Normal","regular":[1,18,35,49,50],"star":[1,3]}
{"$type":"System","regular":[1,4,17,20,34,43,44,50],"star":[1,2,4,5]}
{"$type":"System","regular":[1,3,6,14,18,21,41,47,50],"star":[1,3,5]}
{"$type":"System","regular":[1,2,7,8,14,15,43,47,50],"star":[1,2,3,4,5]}
{"$type":"Normal","regular":[13,19,37,46,50],"star":[1,5]}
{"$type":"Normal","regular":[1,7,19,47,50],"star":[1,4]}
{"$type":"System","regular":[1,10,16,25,31,37,41,48,50],"star":[1,2,3,5]}
{"$type":"System","regular":[1,5,10,11,26,31,33,35],"star":[1,3,4,5]}
{"$type":"Normal","regular":[1,32,34,49,50],"star":[1,4]}
{"$type":"Normal","regular":[1,6,31,39,50],"star":[1,4]}
{"$type":"Normal","regular":[1,19,22,30,50],"star":[1,3]}
{"$type":"Normal","regular":[1,17,32,33,45],"star":[1,5]}
{"$type":"System","regular":[1,4,6,8,14,18,20,39,50],"star":[1,4,5]}
{"$type":"Normal","regular":[1,18,25,43,50],"star":[1,5]}
{"$type":"System","regular":[1,10,20,32,33,37,38,42,46],"star":[1,3,5]}
{"$type":"System","regular":[4,28,30,34,37,39,44,50],"star":[1,3,5]}
{"$type":"System","regular":[1,3,5,24,27,32,38,50],"star":[2,3,4]}
{"$type":"System","regular":[1,10,12,25,28,30,48,50],"star":[1,2,3]}
{"$type":"System","regular":[1,10,21,22,23,37,38,50],"star":[1,4,5]}
{"$type":"Normal","regular":[1,8,13,28,50],"star":[1,5]}
{"$type":"Normal","regular":[1,15,22,28,29],"star":[1,5]}
{"$type":"System","regular":[1,4,10,31,32,37,41,49,50],"star":[1,2,4,5]}
{"$type":"System","regular":[1,16,30,31,39,40,43,46,50],"star":[1,2,4,5]}
{"$type":"Normal","regular":[1,2,27,36,50],"star":[1,2]}
{"$type":"System","regular":[1,3,11,12,16,36,40,43,48,50],"star":[1,2,3,5]}
{"$type":"System","regular":[1,8,18,19,22,31,48,50],"star":[1,2,3,5]}
{"$type":"System","regular":[1,7,17,29,32,39,41,46,50],"star":[1,2,4]}
{"$type":"Normal","regular":[1,7,13,41,50],"star":[1,5]}
{"$type":"System","regular":[1,15,19,30,38,40,44,46,49],"star":[1,3,4,5]}
{"$type":"System","regular":[1,13,19,24,28,29,43,48,50],"star":[1,2,5]}
{"$type":"System","regular":[1,8,12,17,19,26,34,41,42],"star":[1,2,4,5]}
{"$type":"System","regular":[1,3,8,14,24,31,33,43,50],"star":[1,4,5]}
{"$type":"System","regular":[1,4,6,9,14,34,45,50],"star":[1,2,4,5]}
{"$type":"System","regular":[5,11,12,19,27,38,40,42,46,50],"star":[2,3,5]}
{"$type":"System","regular":[1,11,18,25,31,33,36,47,50],"star":[1,2,5]}
{"$type":"System","regular":[1,10,11,21,28,30,48,50],"star":[1,2,4]}
{"$type":"Normal","regular":[1,32,33,35,47],"star":[1,5]}
{"$type":"Normal","regular":[1,14,17,47,50],"star":[3,5]}
{"$type":"Normal","regular":[1,19,30,35,50],"star":[1,5]}
{"$type":"System","regular":[1,7,11,25,28,32,40,50],"star":[1,2,4,5]}
{"$type":"Normal","regular":[1,20,32,38,50],"star":[1,5]}
{"$type":"System","regular":[1,4,10,16,19,20,36,39,50],"star":[1,2,3,5]}
{"$type":"System","regular":[1,5,6,11,15,33,35,50],"star":[1,3,4,5]}
{"$type":"Normal","regular":[1,11,31,41,50],"star":[1,2]}
{"$type":"Normal","regular":[1,8,16,26,33],"star":[1,5]}
{"$type":"System","regular":[1,2,6,14,23,26,49,50],"star":[1,2,4,5]}
{"$type":"System","regular":[1,2,6,7,28,35,44,50],"star":[1,2,3,4]}
{"$type":"System","regular":[1,4,25,35,38,47,49,50],"star":[2,3,5]}
{"$type":"System","regular":[1,6,10,19,25,32,33,48,50],"star":[1,2,3,5]}
{"$type":"Normal","regular":[1,12,21,25,32],"star":[1,4]}
{"$type":"System","regular":[1,14,17,42,45,47,48,50],"star":[1,3,5]}
{"$type":"Normal","regular":[1,11,17,25,50],"star":[1,3]}
{"$type":"System","regular":[1,8,12,28,39,46,50],"star":[1,3,5]}
{"$type":"System","regular":[1,2,13,14,32,38,50],"star":[1,2,5]}
{"$type":"Normal","regular":[1,22,28,40,50],"star":[2,5]}
{"$type":"Normal","regular":[1,7,19,34,50],"star":[1,4]}
{"$type":"System","regular":[1,8,23,24,44,45,46,50],"star":[1,3,5]}
{"$type":"Normal","regular":[1,13,14,20,50],"star":[1,5]}
{"$type":"Normal","regular":[1,6,13,33,45],"star":[1,2]}
{"$type":"Normal","regular":[1,5,7,22,37],"star":[4,5]}
{"$type":"System","regular":[1,2,11,26,32,38,41,50],"star":[1,4,5]}
{"$type":"System","regular":[1,2,5,14,18,25,27,28,43,50],"star":[1,2,4,5]}
{"$type":"Normal","regular":[1,7,9,43,45],"star":[4,5]}
{"$type":"Normal","regular":[1,5,14,43,50],"star":[1,2]}
{"$type":"Normal","regular":[3,28,32,38,50],"star":[2,3]}
{"$type":"System","regular":[1,9,24,25,31,34,37,50],"star":[1,2,5]}
{"$type":"Normal","regular":[1,3,12,16,23],"star":[3,5]}
{"$type":"Normal","regular":[1,6,7,32,40],"star":[1,5]}
{"$type":"Normal","regular":[1,7,41,42,50],"star":[2,5]}
{"$type":"System","regular":[1,3,19,23,35,46,50],"star":[1,2,5]}
{"$type":"Normal","regular":[1,20,24,33,50],"star":[1,2]}
{"$type":"Normal","regular":[1,4,5,18,50],"star":[2,5]}
{"$type":"System","regular":[1,8,9,17,20,22,28,33,50],"star":[2,3,4]}
{"$type":"Normal","regular":[8,24,43,48,50],"star":[3,5]}
{"$type":"System","regular":[1,2,6,19,31,39,40,48,50],"star":[1,2,5]}
{"$type":"Normal","regular":[1,25,38,40,50],"star":[1,5]}
{"$type":"Normal","regular":[7,13,20,48,50],"star":[2,5]}
{"$type":"Normal","regular":[1,19,25,46,50],"star":[2,5]}
{"$type":"System","regular":[1,6,15,20,24,27,33,43,50],"star":[1,2,3,4]}
{"$type":"Normal","regular":[1,7,13,42,50],"star":[3,5]}
{"$type":"Normal","regular":[1,22,32,48,50],"star":[1,4]}
{"$type":"Normal","regular":[1,3,21,29,41],"star":[1,4]}
{"$type":"System","regular":[1,17,26,28,31,36,37,41,50],"star":[1,3,5]}
{"$type":"Normal","regular":[1,5,20,41,50],"star":[4,5]}
{"$type":"Normal","regular":[4,9,24,30,34],"star":[1,3]}
{"$type":"System","regular":[1,3,7,9,15,28,38,40,50],"star":[1,2,5]}
{"$type":"System","regular":[11,27,29,33,36,42,44,50],"star":[2,4,5]}
{"$type":"System","regular":[10,12,20,23,25,26,31,36,39,50],"star":[1,2,5]}
{"$type":"Normal","regular":[1,27,30,48,50],"star":[1,3]}
{"$type":"System","regular":[1,3,13,17,20,23,25,34,50],"star":[1,2,3,5]}
{"$type":"System","regular":[1,23,25,37,39,43,46,50],"star":[1,3,5]}
{"$type":"System","regular":[1,2,11,17,22,25,35,36,39,40],"star":[1,3,4,5]}
{"$type":"System","regular":[1,3,23,27,32,33,37,46,50],"star":[1,4,5]}
{"$type":"Normal","regular":[1,7,14,35,50],"star":[1,4]}
{"$type":"Normal","regular":[1,5,20,24,50],"star":[1,3]}
{"$type":"System","regular":[4,8,17,30,34,36,40,42,49,50],"star":[1,2,3,5]}
{"$type":"Normal","regular":[24,29,36,48,50],"star":[1,5]}
{"$type":"Normal","regular":[1,4,21,36,50],"star":[1,5]}
{"$type":"System","regular":[1,4,7,35,36,41,46,48,50],"star":[1,2,3,5]}
{"$type":"Normal","regular":[1,18,32,46,50],"star":[1,2]}
{"$type":"System","regular":[1,22,24,29,33,39,41,47,50],"star":[1,3,4,5]}
{"$type":"System","regular":[1,5,16,20,22,27,31,43,50],"star":[1,2,5]}
{"$type":"Normal","regular":[1,13,19,27,41],"star":[1,5]}
{"$type":"System","regular":[1,24,26,35,41,46,47,50],"star":[1,2,4,5]}
{"$type":"System","regular":[1,4,5,12,26,27,31,46],"star":[1,2,4]}
{"$type":"System","regular":[1,12,13,15,20,24,31,50],"star":[1,3,4,5]}
{"$type":"Normal","regular":[1,6,26,46,50],"star":[1,3]}
{"$type":"Normal","regular":[2,5,18,27,50],"star":[2,5]}
{"$type":"System","regular":[1,4,8,11,16,18,37,49],"star":[1,3,4,5]}
{"$type":"Normal","regular":[19,24,30,48,50],"star":[1,5]}
{"$type":"System","regular":[1,4,19,22,26,40,50],"star":[1,3,5]}
{"$type":"System","regular":[1,9,22,35,36,38,41,48,50],"star":[1,3,4,5]}
{"$type":"Normal","regular":[20,30,35,45,47],"star":[2,3]}
{"$type":"System","regular":[1,2,11,18,42,43,46,50],"star":[1,2,3,4]}
{"$type":"System","regular":[1,2,8,17,22,26,27,28,50],"star":[1,2,3,5]}
{"$type":"System","regular":[1,7,10,13,31,45,46,47,50],"star":[2,4,5]}
{"$type":"System","regular":[1,15,20,30,38,44,49],"star":[1,2,3,4]}
{"$type":"Normal","regular":[3,25,42,46,50],"star":[3,5]}
{"$type":"Normal","regular":[1,9,13,15,33],"star":[2,3]}
{"$type":"System","regular":[1,8,27,28,30,35,36,37,50],"star":[1,3,4,5]}
{"$type":"Normal","regular":[1,15,29,47,50],"star":[1,3]}
{"$type":"Normal","regular":[1,9,29,39,40],"star":[1,4]}
{"$type":"System","regular":[1,3,4,5,10,21,27,47,49,50],"star":[1,2,4,5]}
{"$type":"System","regular":[1,7,16,20,25,35,37,38,50],"star":[1,2,4,5]}
{"$type":"Normal","regular":[8,18,34,35,50],"star":[1,3]}
{"$type":"System","regular":[3,14,20,21,24,28,29,35,41,50],"star":[1,2,5]}
{"$type":"System","regular":[1,3,14,16,27,36,37,50],"star":[1,2,4,5]}
{"$type":"System","regular":[1,2,6,7,11,23,28,31,36,50],"star":[1,2,4,5]}
{"$type":"System","regular":[1,2,21,23,26,36,38,44,50],"star":[1,3,4,5]}
{"$type":"System","regular":[1,2,5,12,20,30,32,40,50],"star":[1,2,4,5]}
{"$type":"Normal","regular":[1,2,21,27,40],"star":[1,2]}
{"$type":"System","regular":[1,7,17,22,34,37,38,50],"star":[1,2,5]}
{"$type":"Normal","regular":[11,22,39,46,50],"star":[1,4]}
{"$type":"System","regular":[1,6,7,13,28,33,35,43],"star":[1,3,5]}
{"$type":"System","regular":[1,5,13,41,46,47,49,50],"star":[1,2,4,5]}
{"$type":"System","regular":[4,21,22,23,28,31,34,39,50],"star":[1,3,4,5]}
{"$type":"Normal","regular":[1,15,28,35,50],"star":[4,5]}
{"$type":"Normal","regular":[1,11,25,41,50],"star":[1,4]}
{"$type":"System","regular":[2,6,11,13,14,16,30,39,47,50],"star":[2,4,5]}
{"$type":"Normal","regular":[1,11,13,29,50],"star":[4,5]}
{"$type":"Normal","regular":[1,2,6,16,50],"star":[1,2]}
{"$type":"System","regular":[3,6,12,13,15,16,23,32,33,50],"star":[2,3,4,5]}
{"$type":"System","regular":[1,12,14,16,21,24,29,36,38],"star":[1,2,5]}
{"$type":"System","regular":[1,5,9,18,24,35,50],"star":[1,2,3,4,5]}
{"$type":"Normal","regular":[1,7,24,28,40],"star":[1,5]}
{"$type":"System","regular":[1,7,8,9,11,18,38,50],"star":[1,2,5]}
{"$type":"Normal","regular":[1,16,29,43,50],"star":[1,4]}
{"$type":"System","regular":[1,3,5,9,12,24,43,49,50],"star":[1,2,3,5]}
{"$type":"System","regular":[1,12,13,20,32,34,39,47,50],"star":[1,2,3,5]}
{"$type":"System","regular":[1,15,20,21,26,29,30,33,37,50],"star":[1,2,4,5]}
{"$type":"Normal","regular":[11,13,25,26,50],"star":[4,5]}
{"$type":"Normal","regular":[1,2,18,34,42],"star":[1,5]}
{"$type":"Normal","regular":[1,22,29,31,50],"star":[1,5]}
{"$type":"System","regular":[1,10,12,13,34,40,42,50],"star":[1,3,4,5]}
{"$type":"System","regular":[1,2,20,23,34,39,40,42,44],"star":[1,2,4,5]}
{"$type":"System","regular":[1,11,23,35,37,44,47,50],"star":[1,3,4,5]}
{"$type":"System","regular":[1,2,6,9,10,22,24,27,50],"star":[1,2,4,5]}
{"$type":"System","regular":[1,8,16,18,22,37,38,44,50],"star":[1,3,5]}
{"$type":"Normal","regular":[1,20,32,35,50],"star":[1,4]}
{"$type":"System","regular":[1,5,10,20,26,27,30,50],"star":[1,4,5]}
{"$type":"System","regular":[1,7,15,16,17,20,30,35,46,50],"star":[1,2,4,5]}
{"$type":"Normal","regular":[1,22,31,40,50],"star":[1,4]}
{"$type":"System","regular":[7,8,17,24,27,29,42,45,47,50],"star":[1,2,5]}
{"$type":"System","regular":[1,6,9,11,16,24,29,45,50],"star":[1,2,5]}
{"$type":"System","regular":[1,5,8,19,22,32,40,44,50],"star":[1,3,4,5]}
{"$type":"Normal","regular":[1,4,13,29,46],"star":[2,4]}
{"$type":"System","regular":[1,7,15,29,39,41,42,50],"star":[1,2,3]}
{"$type":"Normal","regular":[6,9,18,23,50],"star":[4,5]}
{"$type":"Normal","regular":[1,9,32,37,47],"star":[1,3]}
{"$type":"Normal","regular":[6,7,29,39,50],"star":[1,5]}
{"$type":"Normal","regular":[1,8,12,13,50],"star":[1,5]}
{"$type":"Normal","regular":[4,10,15,24,50],"star":[3,5]}
{"$type":"Normal","regular":[11,19,22,32,50],"star":[1,5]}
{"$type":"System","regular":[1,4,5,12,16,33,34,41,42],"star":[1,2,5]}
{"$type":"Normal","regular":[1,33,42,43,50],"star":[1,5]}
{"$type":"Normal","regular":[1,7,34,39,50],"star":[1,5]}
{"$type":"Normal","regular":[7,12,24,34,50],"star":[4,5]}
{"$type":"Normal","regular":[1,9,13,33,50],"star":[1,2]}
{"$type":"Normal","regular":[1,24,40,48,50],"star":[2,5]}
{"$type":"Normal","regular":[1,2,23,26,30],"star":[1,5]}
{"$type":"Normal","regular":[1,13,26,35,49],"star":[1,3]}
{"$type":"System","regular":[1,2,8,13,21,43,44,48,50],"star":[1,2,5]}
{"$type":"System","regular":[1,6,8,15,22,25,30,41,47,50],"star":[1,2,3,4,5]}
{"$type":"System","regular":[1,17,25,27,28,29,44,49,50],"star":[1,2,3]}
{"$type":"System","regular":[3,5,8,14,19,33,35,50],"star":[1,2,3,5]}
{"$type":"System","regular":[1,12,17,20,21,24,50],"star":[1,4,5]}
{"$type":"Normal","regular":[1,9,36,40,43],"star":[1,4]}
{"$type":"System","regular":[1,3,13,17,18,35,37,47,50],"star":[1,4,5]}
{"$type":"System","regular":[1,11,20,21,23,25,27,50],"star":[1,2,3]}
{"$type":"Normal","regular":[9,13,33,46,50],"star":[1,2]}
{"$type":"System","regular":[1,10,17,28,34,35,46,48,50],"star":[1,2,4,5]}
{"$type":"System","regular":[1,2,9,14,20,36,40,49,50],"star":[1,4,5]}
{"$type":"System","regular":[1,14,18,21,24,28,39,43,50],"star":[1,3,5]}
{"$type":"Normal","regular":[1,22,37,39,50],"star":[4,5]}
{"$type":"Normal","regular":[1,11,36,42,50],"star":[2,5]}
{"$type":"System","regular":[1,10,13,16,18,24,28,32,33,50],"star":[1,2,4,5]}
{"$type":"Normal","regular":[1,2,25,38,46],"star":[1,4]}
{"$type":"System","regular":[7,8,14,18,28,29,36,37,50],"star":[1,2,5]}
{"$type":"Normal","regular":[1,26,47,48,50],"star":[1,2]}
{"$type":"Normal","regular":[1,2,12,14,50],"star":[4,5]}
{"$type":"System","regular":[1,4,16,17,21,22,29,30],"star":[1,2,3,5]}
{"$type":"System","regular":[1,6,11,14,33,48,50],"star":[1,3,5]}
{"$type":"System","regular":[1,7,11,20,23,38,41,42,50],"star":[1,2,4,5]}
{"$type":"System","regular":[1,10,18,24,27,33,40,50],"star":[1,2,4,5]}
{"$type":"System","regular":[1,3,20,27,29,35,43,50],"star":[1,2,4,5]}
{"$type":"Normal","regular":[1,6,10,15,18],"star":[2,4]}
{"$type":"Normal","regular":[6,18,27,48,50],"star":[4,5]}
{"$type":"Normal","regular":[17,24,28,47,50],"star":[4,5]}
{"$type":"Normal","regular":[1,14,28,34,49],"star":[2,3]}
{"$type":"Normal","regular":[1,10,21,45,50],"star":[2,4]}
{"$type":"System","regular":[19,20,24,32,35,37,42,45,50],"star":[1,2,4,5]}
{"$type":"System","regular":[1,14,17,20,33,38,40,50],"star":[1,3,5]}
{"$type":"System","regular":[1,4,28,30,40,42,47,50],"star":[1,2,3,4]}
{"$type":"System","regular":[4,21,25,28,36,38,42,44,50],"star":[1,3,4,5]}
{"$type":"System","regular":[1,8,11,32,33,39,42,44,46],"star":[1,2,5]}
{"$type":"Normal","regular":[1,24,37,46,50],"star":[1,5]}
{"$type":"System","regular":[1,7,9,19,20,26,42,50],"star":[1,2,3,4]}
{"$type":"System","regular":[1,7,13,17,23,24,40,44,46,50],"star":[1,3,5]}
{"$type":"Normal","regular":[1,12,22,46,50],"star":[1,5]}
{"$type":"System","regular":[1,13,20,24,28,42,45,46,47,50],"star":[1,2,3,5]}
{"$type":"Normal","regular":[1,27,30,31,32],"star":[1,3]}
{"$type":"System","regular":[1,3,6,16,19,29,35,46,50],"star":[1,2,3,5]}
{"$type":"System","regular":[1,23,29,31,33,42,43,45,50],"star":[1,2,5]}
{"$type":"System","regular":[1,7,15,22,27,31,32,34,50],"star":[1,2,4,5]}
{"$type":"System","regular":[1,3,8,13,20,21,22,36,43],"star":[1,3,5]}
{"$type":"Normal","regular":[1,10,15,35,46],"star":[4,5]}
{"$type":"System","regular":[1,7,10,17,34,41,45,50],"star":[1,2,4]}
{"$type":"System","regular":[1,3,5,12,24,44,47,50],"star":[1,3,4,5]}
{"$type":"Normal","regular":[1,26,31,36,46],"star":[2,4]}
{"$type":"System","regular":[1,2,9,21,34,37,47,48,50],"star":[1,2,5]}
{"$type":"Normal","regular":[6,8,11,30,50],"star":[1,4]}
{"$type":"System","regular":[1,2,20,34,36,41,42,43,50],"star":[1,2,3,4]}
{"$type":"Normal","regular":[1,7,17,18,50],"star":[1,5]}
{"$type":"System","regular":[1,7,21,32,40,41,43,50],"star":[1,2,4,5]}
{"$type":"Normal","regular":[7,11,12,39,50],"star":[1,3]}
{"$type":"Normal","regular":[13,15,29,44,50],"star":[1,2]}
{"$type":"Normal","regular":[15,24,38,45,50],"star":[1,4]}
{"$type":"Normal","regular":[14,25,35,40,47],"star":[1,5]}
{"$type":"System","regular":[1,4,16,17,19,22,23,46,50],"star":[1,3,5]}
{"$type":"System","regular":[1,2,3,14,21,22,25,32,34,42],"star":[1,2,3,5]}
{"$type":"System","regular":[3,4,5,16,17,24,48,49,50],"star":[1,2,3,4,5]}
{"$type":"System","regular":[1,8,10,17,26,33,34,35,37,50],"star":[1,2,5]}
{"$type":"System","regular":[1,14,22,29,32,36,41,42,50],"star":[1,2,3,4,5]}
{"$type":"Normal","regular":[1,2,11,19,24],"star":[1,5]}
{"$type":"Normal","regular":[1,19,22,29,42],"star":[4,5]}
{"$type":"System","regular":[1,2,8,18,21,22,41,49,50],"star":[1,4,5]}
{"$type":"Normal","regular":[1,2,6,34,50],"star":[1,5]}
{"$type":"Normal","regular":[1,12,35,47,50],"star":[1,5]}
{"$type":"System","regular":[1,3,7,10,17,25,27,28,30,50],"star":[1,2,4,5]}
{"$type":"System","regular":[1,8,9,12,13,20,49,50],"star":[1,2,3]}
{"$type":"System","regular":[1,23,25,33,39,42,46,47,50],"star":[1,3,5]}
{"$type":"Normal","regular":[1,12,17,33,50],"star":[1,2]}
{"$type":"Normal","regular":[5,6,19,22,50],"star":[1,5]}
{"$type":"System","regular":[1,5,10,13,16,17,20,21,27,50],"star":[1,2,3,5]}
{"$type":"System","regular":[1,11,32,38,42,46,50],"star":[1,2,4,5]}
{"$type":"Normal","regular":[8,11,31,49,50],"star":[4,5]}
{"$type":"System","regular":[1,11,22,33,42,45,49,50],"star":[2,4,5]}
{"$type":"System","regular":[1,3,11,17,25,26,28,29,46,50],"star":[1,3,4,5]}
{"$type":"Normal","regular":[21,22,42,45,50],"star":[2,5]}
{"$type":"Normal","regular":[1,6,9,29,39],"star":[1,3]}
{"$type":"Normal","regular":[1,5,18,22,50],"star":[1,5]}
{"$type":"System","regular":[1,9,20,26,31,34,37,50],"star":[1,2,4,5]}
{"$type":"System","regular":[1,2,5,11,12,17,29,50],"star":[1,3,4,5]}
{"$type":"Normal","regular":[4,34,35,46,50],"star":[1,5]}
{"$type":"System","regular":[1,2,7,23,25,28,39,42,43,50],"star":[1,2,3,5]}
{"$type":"Normal","regular":[1,9,21,23,50],"star":[1,4]}
{"$type":"Normal","regular":[11,14,30,34,44],"star":[1,5]}
{"$type":"Normal","regular":[1,13,16,25,47],"star":[1,4]}
{"$type":"System","regular":[1,8,12,17,21,40,48,49,50],"star":[1,2,3,5]}
{"$type":"Normal","regular":[12,24,36,49,50],"star":[1,5]}
{"$type":"System","regular":[1,10,11,13,18,19,28,36,48],"star":[1,2,3,5]}
{"$type":"System","regular":[1,8,9,17,18,26,27,39,41],"star":[1,2,3,4,5]}
{"$type":"System","regular":[1,11,13,29,33,37,45,50],"star":[1,2,4,5]}
{"$type":"System","regular":[1,13,22,28,32,47,48,50],"star":[1,2,3,5]}
{"$type":"System","regular":[1,4,9,12,17,28,35,37,50],"star":[1,2,3,4,5]}
{"$type":"Normal","regular":[1,2,9,48,50],"star":[1,4]}
{"$type":"System","regular":[5,10,16,25,31,33,35,36,37,43],"star":[1,2,3,5]}
{"$type":"System","regular":[1,16,18,36,42,47,49,50],"star":[1,2,3]}
{"$type":"Normal","regular":[5,42,46,48,50],"star":[2,5]}
{"$type":"System","regular":[1,12,14,39,48,50],"star":[1,2,3,5]}
{"$type":"System","regular":[1,4,6,9,19,21,25,26,46],"star":[1,2,3,4,5]}
{"$type":"System","regular":[1,5,11,15,19,37,44,48,50],"star":[1,2,4,5]}
{"$type":"Normal","regular":[1,9,19,30,32],"star":[1,5]}
{"$type":"System","regular":[1,16,21,25,26,34,41,45,50],"star":[1,2,4,5]}
{"$type":"Normal","regular":[1,17,22,24,45],"star":[1,5]}
{"$type":"Normal","regular":[1,2,17,40,49],"star":[1,2]}
{"$type":"Normal","regular":[1,4,8,9,50],"star":[1,2]}
{"$type":"Normal","regular":[1,12,21,30,31],"star":[1,2]}
{"$type":"System","regular":[1,6,8,22,33,37,42,50],"star":[1,3,4,5]}
{"$type":"System","regular":[1,5,18,28,30,31,37,50],"star":[1,2,3,4]}
{"$type":"System","regular":[1,2,18,19,25,40,45,50],"star":[1,2,5]}
{"$type":"Normal","regular":[1,4,32,38,50],"star":[4,5]}
{"$type":"Normal","regular":[1,13,36,37,50],"star":[1,5]}
{"$type":"Normal","regular":[1,16,19,28,49],"star":[1,5]}
{"$type":"System","regular":[1,5,22,42,46,47,48,50],"star":[1,4,5]}
{"$type":"Normal","regular":[6,19,31,45,50],"star":[1,2]}
{"$type":"Normal","regular":[1,25,33,36,50],"star":[1,3]}
{"$type":"Normal","regular":[1,19,30,36,50],"star":[3,4]}
{"$type":"System","regular":[1,5,9,25,27,31,44,49],"star":[1,2,5]}
{"$type":"Normal","regular":[1,28,34,41,50],"star":[1,5]}
{"$type":"System","regular":[1,4,5,9,32,34,40,50],"star":[1,2,3,5]}
{"$type":"System","regular":[1,3,16,35,39,41,48,49,50],"star":[2,3,4]}
{"$type":"Normal","regular":[1,30,42,49,50],"star":[1,5]}
{"$type":"System","regular":[1,8,9,19,23,26,32,41,50],"star":[1,2,3,5]}
{"$type":"System","regular":[1,7,8,10,20,21,43,50],"star":[1,3,5]}
{"$type":"System","regular":[1,8,9,14,23,27,47,49,50],"star":[2,3,5]}
{"$type":"Normal","regular":[1,13,20,31,50],"star":[1,5]}
{"$type":"System","regular":[1,6,21,22,24,27,39,45,50],"star":[1,3,4]}
{"$type":"Normal","regular":[1,18,19,45,50],"star":[1,3]}
{"$type":"Normal","regular":[1,2,3,25,29],"star":[1,4]}
{"$type":"Normal","regular":[1,10,29,33,47],"star":[1,5]}
{"$type":"System","regular":[1,3,10,11,14,29,32,33,44,47],"star":[2,3,4,5]}
{"$type":"Normal","regular":[1,12,22,45,48],"star":[4,5]}
{"$type":"System","regular":[1,2,23,27,34,36,42,44,49,50],"star":[1,2,4,5]}
{"$type":"System","regular":[1,6,9,23,39,44,45,50],"star":[2,3,4,5]}
{"$type":"Normal","regular":[1,4,9,19,50],"star":[3,5]}
{"$type":"Normal","regular":[1,23,29,31,50],"star":[1,5]}
{"$type":"System","regular":[1,12,13,21,24,27,28,31,34,47],"star":[1,3,4,5]}
{"$type":"Normal","regular":[1,2,7,11,12],"star":[1,2]}
{"$type":"Normal","regular":[1,13,20,23,38],"star":[1,4]}
{"$type":"System","regular":[1,7,11,14,36,39,48,49,50],"star":[1,3,5]}
{"$type":"Normal","regular":[1,15,17,35,36],"star":[1,3]}
{"$type":"System","regular":[1,3,18,33,46,47,50],"star":[1,3,4,5]}
{"$type":"Normal","regular":[1,24,29,32,48],"star":[1,3]}
{"$type":"System","regular":[2,6,15,17,18,19,23,37,43,50],"star":[1,2,3,5]}
{"$type":"Normal","regular":[1,6,35,45,50],"star":[1,5]}
{"$type":"System","regular":[2,8,25,29,32,34,36,42,45,50],"star":[1,2,4,5]}
{"$type":"System","regular":[1,3,13,16,35,36,39,45,50],"star":[1,2,3,4]}
{"$type":"Normal","regular":[1,3,33,45,50],"star":[1,5]}
{"$type":"Normal","regular":[1,8,26,37,50],"star":[1,3]}
{"$type":"System","regular":[1,5,18,24,26,27,33,34,41,50],"star":[1,2,3,5]}
{"$type":"System","regular":[1,4,11,13,21,41,49,50],"star":[1,3,5]}
{"$type":"System","regular":[1,13,19,20,25,28,47,48,50],"star":[1,2,3,4]}
{"$type":"System","regular":[1,2,13,17,22,28,35,39,50],"star":[1,2,5]}
{"$type":"System","regular":[1,6,9,10,19,26,43,46,49,50],"star":[1,2,4]}
{"$type":"System","regular":[1,3,5,13,28,29,32,36,39],"star":[1,3,5]}
{"$type":"System","regular":[1,4,9,31,34,37,41,48],"star":[1,2,3,5]}
{"$type":"System","regular":[1,3,7,13,15,25,36,45,48,50],"star":[1,4,5]}
{"$type":"System","regular":[1,3,4,5,17,31,50],"star":[1,2,5]}
{"$type":"Normal","regular":[1,11,23,36,40],"star":[1,5]}
{"$type":"System","regular":[1,9,12,13,17,23,32,47,50],"star":[1,2,5]}
{"$type":"Normal","regular":[1,11,24,47,50],"star":[2,5]}
{"$type":"System","regular":[1,6,8,9,12,27,33,35,50],"star":[1,3,5]}
{"$type":"Normal","regular":[1,8,28,44,45],"star":[1,4]}
{"$type":"Normal","regular":[1,12,17,19,32],"star":[2,3]}
{"$type":"System","regular":[1,4,8,18,23,30,32,38,50],"star":[1,2,5]}
{"$type":"Normal","regular":[1,4,15,21,38],"star":[1,2]}
{"$type":"Normal","regular":[1,9,30,47,50],"star":[1,3]}
{"$type":"System","regular":[1,18,19,27,35,39,44,50],"star":[1,3,5]}
{"$type":"Normal","regular":[1,6,17,22,26],"star":[1,5]}
{"$type":"Normal","regular":[32,34,36,43,50],"star":[1,3]}
{"$type":"System","regular":[1,7,16,17,18,27,36,37,45,50],"star":[1,2,4,5]}
{"$type":"System","regular":[1,5,8,21,26,36,44,48,50],"star":[1,4,5]}
{"$type":"System","regular":[1,3,6,8,21,30,33,48,50],"star":[1,4,5]}
{"$type":"System","regular":[1,2,3,11,12,17,28,43,50],"star":[1,2,3,5]}
{"$type":"System","regular":[1,8,12,33,42,44,47,50],"star":[1,2,4,5]}
{"$type":"System","regular":[1,8,10,20,32,35,50],"star":[1,2,3,5]}
{"$type":"System","regular":[1,2,14,18,32,35,40,49],"star":[1,3,4,5]}
{"$type":"Normal","regular":[18,31,38,46,50],"star":[1,2]}
{"$type":"System","regular":[1,9,11,18,26,28,30,50],"star":[1,3,5]}
{"$type":"Normal","regular":[1,8,11,25,50],"star":[1,5]}
{"$type":"System","regular":[4,7,21,22,25,29,33,35,41,42],"star":[1,4,5]}
{"$type":"Normal","regular":[1,15,29,34,50],"star":[3,5]}
{"$type":"System","regular":[1,4,5,16,35,40,42,50],"star":[1,4,5]}
{"$type":"Normal","regular":[1,9,31,47,50],"star":[3,4]}
{"$type":"System","regular":[1,22,27,31,34,42,50],"star":[1,3,5]}
{"$type":"System","regular":[1,10,22,25,27,31,33,38,50],"star":[1,2,3,4]}
{"$type":"System","regular":[1,6,15,16,39,41,48,50],"star":[1,2,3,5]}
{"$type":"Normal","regular":[3,5,6,17,50],"star":[2,3]}
{"$type":"System","regular":[1,3,6,12,21,25,45,50],"star":[1,2,3,5]}
{"$type":"Normal","regular":[12,37,48,49,50],"star":[1,3]}
{"$type":"Normal","regular":[36,39,44,48,50],"star":[3,5]}
{"$type":"System","regular":[1,19,26,27,34,45,48,50],"star":[2,4,5]}
{"$type":"System","regular":[1,16,18,23,24,37,38,46,50],"star":[1,2,3,4,5]}
{"$type":"Normal","regular":[1,13,28,32,36],"star":[4,5]}
{"$type":"System","regular":[1,7,15,21,31,40,44,46,50],"star":[1,2,5]}
{"$type":"System","regular":[1,2,12,20,26,29,31,44,46,50],"star":[1,3,4,5]}
{"$type":"System","regular":[1,2,17,19,25,45,49,50],"star":[1,3,4,5]}
{"$type":"System","regular":[1,13,19,23,25,30,42,50],"star":[1,2,3,5]}
{"$type":"System","regular":[1,4,6,10,24,34,36,39,50],"star":[1,2,3,5]}
{"$type":"System","regular":[1,8,9,10,19,42,45,46,50],"star":[1,2,5]}
{"$type":"System","regular":[1,7,8,18,23,30,33,50],"star":[1,2,3,5]}
{"$type":"Normal","regular":[1,11,32,40,49],"star":[1,4]}
{"$type":"Normal","regular":[1,32,35,45,50],"star":[1,3]}
{"$type":"System","regular":[1,4,5,8,27,30,31,44,47,50],"star":[1,2,4,5]}
{"$type":"System","regular":[1,3,10,12,14,22,32,33,50],"star":[1,2,3,4,5]}
{"$type":"Normal","regular":[5,21,34,39,44],"star":[1,4]}
{"$type":"Normal","regular":[8,19,32,34,50],"star":[4,5]}
{"$type":"Normal","regular":[1,7,12,28,50],"star":[1,4]}
{"$type":"System","regular":[7,13,17,29,33,39,40,41,43,50],"star":[1,2,4,5]}
{"$type":"System","regular":[1,4,14,16,28,44,49,50],"star":[1,3,5]}
{"$type":"Normal","regular":[1,17,32,36,50],"star":[1,5]}
{"$type":"Normal","regular":[1,13,16,20,50],"star":[1,5]}
{"$type":"System","regular":[1,12,15,16,23,43,44,50],"star":[1,2,5]}
{"$type":"Normal","regular":[13,24,28,31,48],"star":[2,5]}
{"$type":"System","regular":[1,4,8,9,10,16,33,45,50],"star":[2,3,5]}
{"$type":"System","regular":[1,4,5,6,25,36,49,50],"star":[1,2,5]}
{"$type":"Normal","regular":[1,7,35,45,50],"star":[3,5]}
{"$type":"System","regular":[1,5,11,30,37,41,45,47,50],"star":[1,2,5]}
{"$type":"System","regular":[1,11,27,30,33,41,43,46,50],"star":[1,2,5]}
{"$type":"Normal","regular":[1,4,12,20,50],"star":[1,4]}
{"$type":"Normal","regular":[1,2,11,21,41],"star":[3,4]}
{"$type":"Normal","regular":[1,2,33,34,50],"star":[1,5]}
{"$type":"Normal","regular":[1,7,20,27,36],"star":[2,5]}
{"$type":"Normal","regular":[1,16,39,41,50],"star":[1,5]}
{"$type":"Normal","regular":[1,17,34,36,50],"star":[1,4]}
{"$type":"Normal","regular":[41,42,47,48,50],"star":[4,5]}
{"$type":"Normal","regular":[1,43,48,49,50],"star":[1,5]}
{"$type":"System","regular":[1,15,28,30,35,36,46,49,50],"star":[2,4,5]}
{"$type":"Normal","regular":[1,7,27,28,39],"star":[1,5]}
{"$type":"Normal","regular":[15,21,28,34,47],"star":[1,5]}
{"$type":"Normal","regular":[1,5,11,44,50],"star":[1,5]}
{"$type":"Normal","regular":[1,16,32,37,44],"star":[1,5]}
{"$type":"System","regular":[1,8,27,28,33,37,46,50],"star":[1,2,3,4]}
{"$type":"System","regular":[8,11,24,25,28,31,34,38,50],"star":[1,3,5]}
{"$type":"System","regular":[1,3,24,33,37,41,45,50],"star":[1,3,4,5]}
{"$type":"System","regular":[1,6,11,29,30,35,36,42,50],"star":[1,2,5]}
{"$type":"System","regular":[1,6,23,27,28,40,49,50],"star":[1,3,4]}
{"$type":"System","regular":[3,8,13,21,26,41,46,48,49,50],"star":[1,2,4,5]}
{"$type":"System","regular":[1,3,4,10,15,16,20,23],"star":[1,4,5]}
{"$type":"Normal","regular":[1,26,35,36,50],"star":[1,2]}
{"$type":"System","regular":[1,4,5,14,19,22,24,31,46,50],"star":[1,3,4,5]}
{"$type":"Normal","regular":[1,6,16,29,50],"star":[1,5]}
{"$type":"System","regular":[1,12,13,15,19,26,34,44],"star":[1,3,4,5]}
{"$type":"System","regular":[1,4,18,19,21,42,46,50],"star":[1,3,5]}
{"$type":"System","regular":[1,34,37,38,41,46,47,50],"star":[1,4,5]}
{"$type":"System","regular":[1,10,23,25,31,32,33,36,41,50],"star":[1,3,5]}
{"$type":"System","regular":[1,5,9,17,22,25,37,50],"star":[1,2,4]}
{"$type":"System","regular":[1,11,15,17,23,24,35,36,42,43],"star":[1,2,4,5]}
{"$type":"Normal","regular":[1,11,32,40,50],"star":[2,5]}
{"$type":"System","regular":[1,2,7,14,22,32,39,40,43,50],"star":[1,2,3,4,5]}
{"$type":"System","regular":[1,8,10,16,22,26,44,50],"star":[1,2,5]}
{"$type":"Normal","regular":[1,8,12,43,50],"star":[1,5]}
{"$type":"Normal","regular":[1,13,18,23,25],"star":[1,3]}
{"$type":"System","regular":[1,16,20,25,28,35,37,38,40,50],"star":[1,4,5]}
{"$type":"Normal","regular":[1,18,23,48,50],"star":[1,2]}
{"$type":"Normal","regular":[1,4,8,28,50],"star":[2,4]}
{"$type":"Normal","regular":[12,22,25,34,35],"star":[2,4]}
{"$type":"Normal","regular":[1,4,8,45,50],"star":[4,5]}
{"$type":"Normal","regular":[4,10,26,33,47],"star":[1,3]}
{"$type":"System","regular":[1,2,16,25,34,43,45,49,50],"star":[1,2,5]}
{"$type":"System","regular":[1,26,28,30,34,39,44,50],"star":[1,2,4,5]}
{"$type":"Normal","regular":[17,25,27,31,50],"star":[1,5]}
{"$type":"System","regular":[3,6,13,18,33,36,44,46,50],"star":[1,2,3,4,5]}
{"$type":"System","regular":[1,5,8,20,22,24,28,39,50],"star":[1,3,4,5]}
{"$type":"Normal","regular":[1,5,27,28,36],"star":[1,4]}
{"$type":"Normal","regular":[1,7,10,20,27],"star":[3,5]}
{"$type":"Normal","regular":[1,28,36,38,50],"star":[1,5]}
{"$type":"System","regular":[1,5,15,20,39,42,48,50],"star":[1,2,5]}
{"$type":"System","regular":[1,2,6,28,36,44,50],"star":[1,4,5]}
{"$type":"Normal","regular":[1,13,24,43,47],"star":[1,3]}
{"$type":"Normal","regular":[1,15,21,42,50],"star":[1,5]}
{"$type":"Normal","regular":[1,11,30,40,50],"star":[1,5]}
{"$type":"Normal","regular":[1,18,24,41,50],"star":[2,4]}
{"$type":"System","regular":[1,8,17,20,22,31,32,40,50],"star":[1,3,4,5]}
{"$type":"System","regular":[1,9,20,22,30,39,44,49,50],"star":[1,2,4,5]}
{"$type":"System","regular":[1,3,12,15,20,21,34,39,40,50],"star":[1,2,3,4,5]}
{"$type":"System","regular":[1,3,13,25,28,36,40,48,50],"star":[1,2,3,4]}
{"$type":"Normal","regular":[1,17,22,33,34],"star":[1,2]}
{"$type":"System","regular":[1,10,26,27,29,34,43,48],"star":[1,2,3,4,5]}
{"$type":"System","regular":[1,24,34,38,40,41,44,50],"star":[1,2,3,5]}
{"$type":"System","regular":[1,13,14,16,21,27,34,36,39],"star":[1,4,5]}
{"$type":"Normal","regular":[1,5,15,27,50],"star":[1,3]}
{"$type":"System","regular":[1,4,10,14,26,42,45,50],"star":[1,3,5]}
{"$type":"System","regular":[1,3,4,19,25,28,37,40,50],"star":[1,2,3,5]}
{"$type":"Normal","regular":[1,18,25,27,50],"star":[1,5]}
{"$type":"Normal","regular":[10,21,25,27,50],"star":[3,5]}
{"$type":"Normal","regular":[1,3,8,36,50],"star":[1,5]}
{"$type":"Normal","regular":[21,23,24,26,49],"star":[1,5]}
{"$type":"System","regular":[1,2,3,18,34,45,47,50],"star":[1,2,3,4,5]}
{"$type":"Normal","regular":[1,21,23,48,50],"star":[1,5]}
{"$type":"Normal","regular":[1,20,24,25,48],"star":[1,3]}
{"$type":"Normal","regular":[1,15,25,49,50],"star":[1,5]}
{"$type":"System","regular":[1,2,7,18,29,36,46,50],"star":[1,2,5]}
{"$type":"System","regular":[1,2,3,5,7,17,23,41,50],"star":[2,3,4,5]}
{"$type":"System","regular":[3,5,7,12,15,16,25,45,50],"star":[1,3,4,5]}
{"$type":"Normal","regular":[1,7,27,38,45],"star":[2,5]}
{"$type":"System","regular":[1,3,7,14,16,31,34,40,45,50],"star":[1,2,3,4,5]}
{"$type":"System","regular":[1,2,17,25,30,34,45,50],"star":[2,3,4,5]}
{"$type":"System","regular":[1,13,16,27,41,42,45,50],"star":[1,4,5]}
{"$type":"Normal","regular":[1,27,35,39,45],"star":[1,5]}
{"$type":"System","regular":[1,7,9,13,14,33,44,49,50],"star":[1,2,3,5]}
{"$type":"System","regular":[2,6,9,12,15,28,44,46,50],"star":[1,2,3,5]}
{"$type":"Normal","regular":[1,5,41,42,50],"star":[1,5]}
{"$type":"System","regular":[1,6,12,20,29,34,41,47,50],"star":[1,2,5]}
{"$type":"Normal","regular":[1,8,11,28,50],"star":[3,4]}
{"$type":"System","regular":[1,3,6,16,20,28,39,50],"star":[1,2,5]}
{"$type":"System","regular":[1,11,15,17,18,19,35,37,48,50],"star":[1,3,5]}
{"$type":"Normal","regular":[1,4,43,45,50],"star":[1,2]}
{"$type":"Normal","regular":[1,13,38,49,50],"star":[1,3]}
{"$type":"Normal","regular":[12,14,34,39,50],"star":[1,3]}
{"$type":"Normal","regular":[1,9,14,41,50],"star":[3,5]}
{"$type":"System","regular":[1,8,9,13,21,24,33,35,50],"star":[1,2,3,4,5]}
{"$type":"Normal","regular":[1,21,34,37,41],"star":[1,5]}
{"$type":"Normal","regular":[1,6,20,46,50],"star":[4,5]}
{"$type":"System","regular":[1,3,22,28,36,40,41,47,50],"star":[1,3,5]}
{"$type":"Normal","regular":[1,7,22,45,50],"star":[2,5]}
{"$type":"Normal","regular":[13,17,22,32,50],"star":[1,4]}
{"$type":"System","regular":[1,2,5,10,12,29,39,47,50],"star":[1,3,5]}
{"$type":"Normal","regular":[1,7,15,20,24],"star":[1,5]}
{"$type":"System","regular":[1,19,34,36,47,49,50],"star":[1,2,5]}
{"$type":"System","regular":[1,6,21,26,28,32,35,40,50],"star":[1,2,3,4]}
{"$type":"Normal","regular":[1,5,28,42,50],"star":[1,3]}
{"$type":"System","regular":[1,8,9,14,26,28,32,33,48],"star":[1,4,5]}
{"$type":"Normal","regular":[1,5,6,11,24],"star":[1,5]}
{"$type":"Normal","regular":[1,36,38,40,42],"star":[1,5]}
{"$type":"Normal","regular":[1,4,9,10,15],"star":[4,5]}
{"$type":"Normal","regular":[1,15,19,44,50],"star":[1,5]}
{"$type":"System","regular":[1,4,7,18,24,35,39,50],"star":[1,3,4,5]}
{"$type":"Normal","regular":[1,35,37,38,50],"star":[1,5]}
{"$type":"Normal","regular":[1,8,10,24,36],"star":[4,5]}
{"$type":"System","regular":[1,3,6,17,21,31,36,50],"star":[1,2,3,4]}
{"$type":"System","regular":[1,11,16,18,19,29,32,44],"star":[1,2,4]}
{"$type":"Normal","regular":[1,14,41,42,50],"star":[1,5]}
{"$type":"Normal","regular":[1,3,29,46,50],"star":[1,3]}
{"$type":"Normal","regular":[1,2,43,47,50],"star":[3,5]}
{"$type":"System","regular":[1,5,6,17,30,31,46,50],"star":[1,2,3,5]}
{"$type":"Normal","regular":[3,6,31,41,44],"star":[1,5]}
{"$type":"System","regular":[1,2,4,14,21,26,30,34,50],"star":[1,4,5]}
{"$type":"Normal","regular":[6,15,28,45,47],"star":[1,3]}
{"$type":"Normal","regular":[10,17,35,39,48],"star":[1,2]}
{"$type":"Normal","regular":[8,9,14,19,50],"star":[1,5]}
{"$type":"Normal","regular":[1,3,9,12,50],"star":[1,4]}
{"$type":"Normal","regular":[1,18,27,32,37],"star":[1,5]}
{"$type":"Normal","regular":[1,11,12,15,16],"star":[3,5]}
{"$type":"Normal","regular":[1,2,3,5,19],"star":[1,2]}
{"$type":"System","regular":[1,2,11,25,32,36,37,47,50],"star":[1,2,4,5]}
{"$type":"System","regular":[1,4,17,25,28,40,44,46,50],"star":[1,3,5]}
{"$type":"Normal","regular":[32,39,42,46,50],"star":[1,2]}
{"$type":"Normal","regular":[1,4,6,15,50],"star":[1,5]}
{"$type":"System","regular":[1,6,16,17,18,37,48,50],"star":[1,2,3,4]}
{"$type":"Normal","regular":[2,8,21,35,40],"star":[1,2]}
{"$type":"Normal","regular":[1,27,46,49,50],"star":[2,5]}
{"$type":"Normal","regular":[1,12,19,48,50],"star":[1,5]}
{"$type":"System","regular":[6,7,9,11,17,18,22,24,32],"star":[1,3,5]}
{"$type":"System","regular":[1,4,16,18,22,25,31,38,50],"star":[1,2,4,5]}
{"$type":"System","regular":[2,10,23,32,40,41,47,49,50],"star":[1,3,5]}
{"$type":"Normal","regular":[1,6,17,32,50],"star":[1,4]}
{"$type":"Normal","regular":[1,12,22,26,31],"star":[4,5]}
{"$type":"System","regular":[3,11,15,16,28,36,39,40,48,50],"star":[1,2,4,5]}
{"$type":"Normal","regular":[1,36,44,48,50],"star":[2,3]}
{"$type":"Normal","regular":[1,2,21,44,49],"star":[1,3]}
{"$type":"Normal","regular":[1,15,44,49,50],"star":[1,2]}
{"$type":"System","regular":[1,17,21,26,32,36,42,50],"star":[1,2,4,5]}
{"$type":"Normal","regular":[35,37,38,45,50],"star":[1,3]}
{"$type":"Normal","regular":[1,8,24,42,50],"star":[4,5]}
{"$type":"Normal","regular":[1,7,19,34,50],"star":[1,2]}
{"$type":"System","regular":[1,6,12,32,35,38,49,50],"star":[1,3,5]}
{"$type":"System","regular":[1,20,25,26,35,39,43,49,50],"star":[1,2,4,5]}
{"$type":"Normal","regular":[11,37,39,42,50],"star":[1,5]}
{"$type":"Normal","regular":[1,7,9,12,25],"star":[1,2]}
{"$type":"Normal","regular":[1,3,34,39,50],"star":[2,4]}
{"$type":"System","regular":[1,14,19,24,26,32,40,48,50],"star":[1,2,3,4,5]}
{"$type":"Normal","regular":[1,17,31,33,50],"star":[1,5]}
{"$type":"System","regular":[1,13,14,16,18,33,42,45],"star":[1,2,3,5]}
{"$type":"Normal","regular":[1,11,18,28,34],"star":[1,5]}
{"$type":"Normal","regular":[1,11,19,38,43],"star":[1,3]}
{"$type":"Normal","regular":[1,4,12,24,33],"star":[2,4]}
{"$type":"Normal","regular":[6,15,27,42,50],"star":[1,5]}
{"$type":"System","regular":[1,4,9,12,21,25,33,36,50],"star":[1,2,3,5]}
{"$type":"System","regular":[3,7,14,23,26,29,33,35,45,50],"star":[1,2,3,5]}
{"$type":"Normal","regular":[1,4,6,38,47],"star":[2,5]}
{"$type":"Normal","regular":[1,2,25,37,50],"star":[1,5]}
{"$type":"Normal","regular":[1,8,42,49,50],"star":[1,3]}
{"$type":"System","regular":[1,2,6,11,19,21,35,42,50],"star":[1,4,5]}
{"$type":"Normal","regular":[1,11,22,44,50],"star":[2,5]}
{"$type":"System","regular":[4,14,15,23,26,27,32,36,44,50],"star":[1,2,5]}
{"$type":"System","regular":[1,9,13,21,23,31,36,46,50],"star":[1,2,3,4,5]}
{"$type":"Normal","regular":[2,15,32,34,50],"star":[1,5]}
{"$type":"System","regular":[1,10,14,24,37,39,42,48,50],"star":[1,4,5]}
{"$type":"System","regular":[1,2,5,8,9,14,28,32,50],"star":[1,2,4,5]}
{"$type":"Normal","regular":[19,38,42,43,45],"star":[1,4]}
{"$type":"Normal","regular":[1,4,29,49,50],"star":[1,3]}
{"$type":"System","regular":[1,20,25,39,44,46,48,50],"star":[1,2,3,4,5]}
{"$type":"System","regular":[1,13,16,18,26,31,32,38,46,50],"star":[1,2,3,5]}
{"$type":"System","regular":[1,2,11,12,18,23,35,48,50],"star":[1,2,3,5]}
{"$type":"System","regular":[1,5,13,21,30,33,38,43,50],"star":[1,2,4,5]}
{"$type":"Normal","regular":[1,11,16,17,38],"star":[1,5]}
{"$type":"Normal","regular":[1,18,35,42,45],"star":[1,2]}
{"$type":"Normal","regular":[1,3,31,48,50],"star":[4,5]}
{"$type":"System","regular":[1,8,10,15,30,35,41,42,45,50],"star":[1,2,3,5]}
{"$type":"System","regular":[12,14,16,30,36,40,46,50],"star":[1,4,5]}
{"$type":"Normal","regular":[1,20,27,41,50],"star":[1,5]}
{"$type":"Normal","regular":[1,5,20,25,41],"star":[1,4]}
{"$type":"System","regular":[1,2,7,10,35,37,46,49,50],"star":[1,3,5]}
{"$type":"System","regular":[1,19,22,27,34,38,41,46,50],"star":[1,2,3,5]}
{"$type":"System","regular":[1,13,15,18,28,32,35,38,50],"star":[1,2,4,5]}
{"$type":"Normal","regular":[1,11,16,19,50],"star":[1,3]}
{"$type":"System","regular":[1,4,7,12,36,37,38,46,50],"star":[1,3,5]}
{"$type":"System","regular":[1,4,12,15,19,30,35,40,44],"star":[1,3,5]}
{"$type":"Normal","regular":[1,8,10,38,50],"star":[2,5]}
{"$type":"Normal","regular":[1,5,21,22,46],"star":[1,4]}
{"$type":"Normal","regular":[1,10,12,29,44],"star":[4,5]}
{"$type":"System","regular":[1,3,4,8,13,29,43,50],"star":[1,3,5]}
{"$type":"System","regular":[1,8,12,13,17,19,22,33,50],"star":[1,2,3,5]}
{"$type":"System","regular":[1,10,20,25,31,32,41,46,50],"star":[1,3,4,5]}
{"$type":"Normal","regular":[1,16,23,35,41],"star":[1,3]}
{"$type":"System","regular":[1,2,14,20,28,30,31,49,50],"star":[1,3,4,5]}
{"$type":"Normal","regular":[1,8,11,29,41],"star":[2,5]}
{"$type":"System","regular":[1,11,12,21,24,30,42,50],"star":[1,2,3,4]}
{"$type":"System","regular":[1,3,8,13,18,23,38,46,50],"star":[1,2,5]}
{"$type":"Normal","regular":[1,10,18,49,50],"star":[1,2]}
{"$type":"Normal","regular":[1,4,29,39,44],"star":[1,2]}
{"$type":"System","regular":[1,3,7,34,35,36,39,50],"star":[1,2,4,5]}
{"$type":"System","regular":[1,11,15,19,21,23,26,38,49,50],"star":[1,2,3,4,5]}
{"$type":"Normal","regular":[1,12,21,33,50],"star":[3,4]}
{"$type":"Normal","regular":[1,16,21,38,43],"star":[1,5]}
{"$type":"System","regular":[1,7,11,14,34,35,41,48,50],"star":[1,3,5]}
{"$type":"Normal","regular":[1,8,36,45,50],"star":[1,4]}
{"$type":"System","regular":[1,8,9,12,15,21,29,47,49,50],"star":[1,2,3,4,5]}
{"$type":"Normal","regular":[1,3,9,10,50],"star":[1,3]}
{"$type":"Normal","regular":[1,8,15,16,50],"star":[1,2]}
{"$type":"Normal","regular":[1,29,31,45,46],"star":[1,5]}
{"$type":"System","regular":[1,6,9,10,12,30,33,36,39,40],"star":[1,2,3,4,5]}
{"$type":"System","regular":[1,15,23,26,31,37,44,46,47],"star":[1,2,4,5]}
{"$type":"Normal","regular":[1,29,35,36,50],"star":[1,3]}
{"$type":"System","regular":[1,5,15,16,18,33,38,50],"star":[1,3,4]}
{"$type":"Normal","regular":[1,14,15,36,50],"star":[2,3]}
{"$type":"System","regular":[1,8,16,24,27,34,40,50],"star":[1,2,3,5]}
{"$type":"System","regular":[1,10,12,19,39,40,50],"star":[1,2,4,5]}
{"$type":"System","regular":[1,11,17,18,24,29,30,31,44,49],"star":[1,2,3,4,5]}
{"$type":"System","regular":[1,6,13,27,31,41,44,49],"star":[1,2,3,4,5]}
{"$type":"System","regular":[1,8,16,24,28,34,43,50],"star":[1,2,3,5]}
{"$type":"Normal","regular":[1,17,42,48,50],"star":[3,5]}
{"$type":"System","regular":[1,5,7,8,9,10,17,20,46],"star":[1,2,3,4,5]}
{"$type":"Normal","regular":[1,28,34,35,45],"star":[1,5]}
{"$type":"Normal","regular":[1,19,45,48,50],"star":[1,5]}
{"$type":"Normal","regular":[1,10,11,40,50],"star":[1,5]}
{"$type":"Normal","regular":[1,3,24,27,50],"star":[1,4]}
{"$type":"System","regular":[1,12,19,22,26,31,33,35,50],"star":[1,2,3,5]}
{"$type":"System","regular":[1,11,19,24,39,43,50],"star":[1,3,4,5]}
{"$type":"System","regular":[1,10,12,13,16,18,36,50],"star":[1,3,4,5]}
{"$type":"System","regular":[1,5,6,18,24,31,39,41,44,50],"star":[1,3,4,5]}
{"$type":"Normal","regular":[13,21,29,47,50],"star":[2,5]}
{"$type":"Normal","regular":[24,32,42,45,50],"star":[2,5]}
{"$type":"System","regular":[1,3,8,11,22,38,50],"star":[1,3,4,5]}
{"$type":"Normal","regular":[1,4,29,42,50],"star":[1,5]}
{"$type":"System","regular":[1,7,10,20,28,30,33,37,50],"star":[1,2,4,5]}
{"$type":"System","regular":[1,10,13,18,20,39,40,41,50],"star":[1,2,3,5]}
{"$type":"System","regular":[1,4,18,27,31,37,46,50],"star":[1,2,3,4]}
{"$type":"Normal","regular":[1,10,28,38,50],"star":[1,5]}
{"$type":"System","regular":[1,4,12,13,19,25,27,48,50],"star":[1,2,3,5]}
{"$type":"Normal","regular":[1,14,19,44,49],"star":[3,5]}
{"$type":"Normal","regular":[1,9,22,26,47],"star":[4,5]}
{"$type":"Normal","regular":[4,11,26,34,50],"star":[1,5]}
{"$type":"System","regular":[3,5,6,14,23,32,46,49],"star":[1,3,4,5]}
{"$type":"System","regular":[1,17,27,29,35,38,40,49],"star":[1,3,4]}
{"$type":"Normal","regular":[1,7,12,31,50],"star":[1,5]}
{"$type":"Normal","regular":[1,16,25,35,50],"star":[4,5]}
{"$type":"System","regular":[1,11,13,16,19,20,21,26,50],"star":[1,3,4]}
{"$type":"Normal","regular":[1,10,28,37,50],"star":[3,5]}
{"$type":"Normal","regular":[1,5,16,34,50],"star":[3,5]}
{"$type":"System","regular":[1,4,7,9,10,15,29,43,50],"star":[1,2,5]}
{"$type":"System","regular":[1,3,5,8,9,14,22,42,50],"star":[1,3,4,5]}
{"$type":"Normal","regular":[4,17,29,41,50],"star":[3,5]}
{"$type":"Normal","regular":[1,14,30,45,48],"star":[4,5]}
{"$type":"Normal","regular":[1,16,18,29,46],"star":[2,4]}
{"$type":"Normal","regular":[1,5,17,41,50],"star":[1,5]}
{"$type":"System","regular":[3,4,10,12,22,23,24,29,47,50],"star":[1,3,4,5]}
{"$type":"System","regular":[1,19,20,27,29,34,37,44,50],"star":[1,3,4]}
{"$type":"Normal","regular":[11,40,42,44,50],"star":[1,5]}
{"$type":"System","regular":[1,3,11,17,33,49,50],"star":[2,3,5]}
{"$type":"Normal","regular":[8,11,17,19,50],"star":[1,2]}
{"$type":"System","regular":[1,4,15,20,25,26,43,48,50],"star":[1,2,4,5]}
{"$type":"Normal","regular":[1,15,41,42,46],"star":[1,3]}
{"$type":"Normal","regular":[1,28,41,46,50],"star":[1,5]}
{"$type":"System","regular":[1,7,11,21,28,34,40,41,50],"star":[1,2,4,5]}
{"$type":"Normal","regular":[1,32,46,47,48],"star":[1,3]}
{"$type":"Normal","regular":[1,21,25,29,35],"star":[4,5]}
{"$type":"Normal","regular":[5,15,37,49,50],"star":[1,3]}
{"$type":"System","regular":[1,9,11,15,26,29,33,44,50],"star":[1,2,4,5]}
{"$type":"System","regular":[1,5,6,9,12,20,34,39,50],"star":[1,2,4,5]}
{"$type":"System","regular":[1,18,23,24,32,45,50],"star":[1,4,5]}
{"$type":"System","regular":[1,19,20,21,26,27,31,35,50],"star":[1,4,5]}
{"$type":"System","regular":[1,13,27,30,31,33,36,40,43,50],"star":[1,2,3,4,5]}
{"$type":"System","regular":[1,8,20,25,29,32,40,41,50],"star":[1,2,5]}
{"$type":"Normal","regular":[1,17,31,36,42],"star":[2,4]}
{"$type":"System","regular":[1,6,29,30,31,34,39,41,46,50],"star":[1,2,3,5]}
{"$type":"System","regular":[1,5,20,23,26,30,31,38,40,50],"star":[1,2,4,5]}
{"$type":"Normal","regular":[1,3,16,27,50],"star":[1,3]}
{"$type":"Normal","regular":[1,3,10,34,50],"star":[4,5]}
{"$type":"Normal","regular":[1,26,29,39,43],"star":[1,5]}
{"$type":"Normal","regular":[1,18,26,45,50],"star":[3,5]}
{"$type":"System","regular":[1,5,19,26,37,43,50],"star":[2,3,4,5]}
{"$type":"Normal","regular":[3,20,28,47,50],"star":[1,5]}
{"$type":"Normal","regular":[1,4,30,32,50],"star":[1,5]}
{"$type":"System","regular":[1,2,11,16,21,36,44,50],"star":[1,3,4,5]}
{"$type":"Normal","regular":[12,28,32,34,50],"star":[1,5]}
{"$type":"System","regular":[1,7,9,24,38,45,46,50],"star":[3,4,5]}
{"$type":"System","regular":[1,3,20,22,23,25,27,31,45,50],"star":[1,3,5]}
{"$type":"Normal","regular":[1,4,16,43,50],"star":[1,2]}
{"$type":"Normal","regular":[1,8,29,33,45],"star":[1,4]}
{"$type":"Normal","regular":[1,8,15,37,43],"star":[2,3]}
{"$type":"Normal","regular":[1,12,15,25,33],"star":[1,2]}
{"$type":"Normal","regular":[1,11,15,30,50],"star":[2,3]}
{"$type":"Normal","regular":[1,4,41,43,44],"star":[1,5]}
{"$type":"Normal","regular":[7,22,24,36,48],"star":[1,5]}
{"$type":"Normal","regular":[10,11,23,28,50],"star":[2,5]}
{"$type":"System","regular":[1,2,11,17,38,41,42,47,50],"star":[1,3,5]}
{"$type":"Normal","regular":[1,9,22,42,45],"star":[1,5]}
{"$type":"Normal","regular":[1,7,15,46,50],"star":[3,4]}
{"$type":"System","regular":[1,8,14,18,19,23,36,45,46,50],"star":[1,2,4,5]}
{"$type":"Normal","regular":[5,19,32,42,50],"star":[1,5]}
{"$type":"System","regular":[1,2,9,17,31,33,39,50],"star":[2,3,4,5]}
{"$type":"System","regular":[1,8,12,18,24,34,42,43,48],"star":[1,2,4,5]}
{"$type":"Normal","regular":[1,33,35,45,46],"star":[3,5]}
{"$type":"Normal","regular":[1,27,28,36,50],"star":[2,4]}
{"$type":"System","regular":[1,16,32,33,34,40,48,50],"star":[1,2,3,4]}
{"$type":"System","regular":[1,2,4,6,34,36,37,42,50],"star":[1,2,3,5]}
{"$type":"Normal","regular":[1,4,11,13,49],"star":[1,3]}
{"$type":"System","regular":[1,11,15,19,30,36,39,40,41],"star":[1,2,3,5]}
{"$type":"System","regular":[1,4,6,8,27,43,50],"star":[1,2,3,5]}
{"$type":"Normal","regular":[4,7,12,34,50],"star":[1,5]}
{"$type":"System","regular":[1,8,9,17,21,40,43,44],"star":[1,2,5]}
{"$type":"System","regular":[1,3,16,19,26,29,30,42,50],"star":[1,4,5]}
{"$type":"System","regular":[1,4,7,10,15,21,34,41,50],"star":[1,2,3,4,5]}
{"$type":"System","regular":[1,6,16,18,22,27,39,40,50],"star":[1,3,5]}
{"$type":"Normal","regular":[3,4,33,47,50],"star":[1,5]}
{"$type":"Normal","regular":[1,2,22,24,44],"star":[3,4]}
{"$type":"Normal","regular":[1,32,34,44,50],"star":[3,5]}
{"$type":"Normal","regular":[1,30,33,36,50],"star":[1,5]}
{"$type":"System","regular":[1,2,5,6,15,30,36,45,50],"star":[1,3,4,5]}
{"$type":"System","regular":[1,2,4,12,13,37,39,50],"star":[1,3,5]}
{"$type":"Normal","regular":[25,30,42,47,50],"star":[1,5]}
{"$type":"Normal","regular":[1,7,29,45,50],"star":[1,5]}
{"$type":"System","regular":[1,2,16,23,26,35,50],"star":[1,2,3,5]}
{"$type":"Normal","regular":[1,19,40,44,50],"star":[1,4]}
{"$type":"Normal","regular":[1,12,27,35,50],"star":[1,3]}
{"$type":"Normal","regular":[1,26,30,48,50],"star":[1,4]}
{"$type":"System","regular":[1,6,19,22,25,31,41,43,48,50],"star":[1,4,5]}
{"$type":"Normal","regular":[1,12,21,31,50],"star":[1,2]}
{"$type":"System","regular":[1,5,15,19,36,37,42,48,50],"star":[1,2,5]}
{"$type":"System","regular":[1,18,20,26,28,36,42,43,45,50],"star":[1,2,3,5]}
{"$type":"Normal","regular":[5,6,7,34,35],"star":[1,5]}
{"$type":"System","regular":[1,8,13,16,17,24,43,50],"star":[1,2,3,5]}
{"$type":"Normal","regular":[1,2,6,18,50],"star":[1,5]}
{"$type":"Normal","regular":[1,2,28,49,50],"star":[3,4]}
{"$type":"Normal","regular":[1,3,5,6,50],"star":[1,3]}
{"$type":"Normal","regular":[32,38,39,47,50],"star":[1,5]}
{"$type":"System","regular":[1,3,8,26,41,45,49,50],"star":[1,2,3,4,5]}
{"$type":"System","regular":[1,8,11,13,30,32,34,49,50],"star":[1,3,5]}
{"$type":"System","regular":[1,5,10,24,25,29,37,47,48,50],"star":[1,3,4,5]}
{"$type":"Normal","regular":[12,16,32,39,41],"star":[1,2]}
{"$type":"System","regular":[1,18,21,23,25,30,31,40,44,50],"star":[1,3,4,5]}
{"$type":"Normal","regular":[1,17,22,39,44],"star":[1,3]}
{"$type":"System","regular":[1,5,16,17,25,26,33,40,50],"star":[1,3,4,5]}
{"$type":"System","regular":[1,13,16,29,30,31,35,45,50],"star":[1,4,5]}
{"$type":"System","regular":[1,2,7,8,9,10,11,21,41],"star":[1,2,3,5]}
{"$type":"Normal","regular":[1,25,32,41,50],"star":[2,5]}
{"$type":"Normal","regular":[1,2,13,17,44],"star":[1,3]}
{"$type":"Normal","regular":[1,27,30,35,50],"star":[1,4]}
{"$type":"System","regular":[2,7,9,18,24,29,33,37,46,50],"star":[1,3,5]}
{"$type":"Normal","regular":[1,18,39,42,50],"star":[1,5]}
{"$type":"System","regular":[8,11,14,15,20,22,23,31,41,45],"star":[1,2,5]}
{"$type":"System","regular":[1,16,18,20,21,22,29,34,50],"star":[1,2,3,4,5]}
{"$type":"System","regular":[1,4,5,7,28,33,47,50],"star":[2,3,4,5]}
{"$type":"Normal","regular":[1,3,5,15,36],"star":[1,4]}
{"$type":"Normal","regular":[1,24,37,43,44],"star":[2,4]}
{"$type":"System","regular":[1,4,7,10,15,20,35,50],"star":[1,4,5]}
{"$type":"System","regular":[1,22,30,35,36,42,47],"star":[1,3,4,5]}
{"$type":"System","regular":[1,5,20,28,30,37,47,48,50],"star":[1,3,4,5]}
{"$type":"System","regular":[1,3,17,20,22,28,30,41,50],"star":[1,3,5]}
{"$type":"Normal","regular":[1,34,37,40,50],"star":[2,4]}
{"$type":"System","regular":[1,10,13,23,41,46,48,50],"star":[1,3,5]}
{"$type":"System","regular":[1,14,20,28,38,41,47,50],"star":[2,3,4,5]}
{"$type":"Normal","regular":[6,10,24,32,50],"star":[1,2]}
{"$type":"Normal","regular":[1,21,23,45,50],"star":[1,5]}
{"$type":"Normal","regular":[1,21,24,33,44],"star":[1,2]}
{"$type":"System","regular":[1,6,8,14,18,22,29,50],"star":[1,2,3,5]}
{"$type":"Normal","regular":[1,13,18,46,50],"star":[1,2]}
{"$type":"Normal","regular":[1,5,30,32,44],"star":[1,4]}
{"$type":"System","regular":[1,11,16,20,22,25,30,36,50],"star":[1,3,4,5]}
{"$type":"System","regular":[1,4,5,20,33,37,41,45,50],"star":[1,3,5]}
{"$type":"Normal","regular":[6,21,27,32,44],"star":[1,3]}
